2022-02-11 02:12:20.587 +02:00 [INF] userEmail=admin@net.com userid=127ee485-c83e-4479-87a4-3b5fd101d8cf was authorizate
2022-02-11 02:12:41.690 +02:00 [INF] Get Photos by userid=127ee485-c83e-4479-87a4-3b5fd101d8cf
2022-02-11 02:13:01.764 +02:00 [INF] Added new photo photo name =Artem from user=127ee485-c83e-4479-87a4-3b5fd101d8cf
2022-02-11 02:13:03.589 +02:00 [INF] Get Photos by userid=127ee485-c83e-4479-87a4-3b5fd101d8cf
2022-02-11 02:13:45.999 +02:00 [INF] userEmail=admin@net.com userid=127ee485-c83e-4479-87a4-3b5fd101d8cf was authorizate
