2022-03-28 20:53:33.592 +03:00 [INF] userEmail=admin@net.com userid=127ee485-c83e-4479-87a4-3b5fd101d8cf was authorizate
2022-03-28 20:53:45.368 +03:00 [INF] userEmail=Test@example.com userid=a7367542-10b5-4b20-a69a-7ce736d7ef0d was authorizate
2022-03-28 20:53:58.730 +03:00 [INF] Get Photos by userid=a7367542-10b5-4b20-a69a-7ce736d7ef0d
2022-03-28 20:54:09.981 +03:00 [INF] Added new photo photo name =Artem from user=a7367542-10b5-4b20-a69a-7ce736d7ef0d
2022-03-28 20:54:11.889 +03:00 [INF] Get Photos by userid=a7367542-10b5-4b20-a69a-7ce736d7ef0d
2022-03-28 20:54:40.415 +03:00 [INF] Get Photos by userid=a7367542-10b5-4b20-a69a-7ce736d7ef0d
